<?xml version="1.0" encoding="UTF-8"?>
<svg width="22px" height="22px" viewBox="0 0 22 22" version="1.1" xmlns="http://www.w3.org/2000/svg" xmlns:xlink="http://www.w3.org/1999/xlink">
    <!-- Generator: Sketch 56.2 (81672) - https://sketch.com -->
    <title>down_arrow_ico</title>
    <desc>Created with Sketch.</desc>
    <g id="Page-1" stroke="none" stroke-width="1" fill="none" fill-rule="evenodd" stroke-linecap="round" stroke-linejoin="round">
        <g id="main_concept_multiple_children1_add_child3" transform="translate(-334.000000, -530.000000)" stroke="#999999" stroke-width="2">
            <g id="아이-키" transform="translate(20.000000, 484.000000)">
                <g id="down_arrow_ico" transform="translate(315.000000, 47.000000)">
                    <path d="M10,20 C4.47793103,20 0,15.5234483 0,10 C0,4.47758621 4.47793103,0 10,0 C15.5234483,0 20,4.47758621 20,10 C20,15.5234483 15.5234483,20 10,20 Z" id="Stroke-1"></path>
                    <polyline id="Stroke-3" points="12.7586207 12.0689655 10 14.8275862 7.24137931 12.0689655"></polyline>
                    <path d="M10,14.8275862 L10,5.17241379" id="Stroke-5"></path>
                </g>
            </g>
        </g>
    </g>
</svg>